<?xml version="1.0" encoding="UTF-8"?>
<svg width="101px" height="34px" viewBox="0 0 101 34" version="1.1" xmlns="http://www.w3.org/2000/svg" xmlns:xlink="http://www.w3.org/1999/xlink">
    <!-- Generator: Sketch 52.6 (67491) - http://www.bohemiancoding.com/sketch -->
    <title>Group 16 Copy</title>
    <desc>Created with Sketch.</desc>
    <defs>
        <linearGradient x1="0%" y1="50%" x2="99.9915512%" y2="50%" id="linearGradient-1">
            <stop stop-color="#272359" stop-opacity="0" offset="8%"></stop>
            <stop stop-color="#272359" stop-opacity="0.85" offset="100%"></stop>
        </linearGradient>
    </defs>
    <g id="Page-1" stroke="none" stroke-width="1" fill="none" fill-rule="evenodd">
        <g id="Desktop-HD" transform="translate(-900.000000, -2021.000000)">
            <g id="Group-23" transform="translate(0.000000, 1562.000000)">
                <g id="Group-22" transform="translate(43.000000, 100.000000)">
                    <g id="Group-20" transform="translate(0.000000, 359.000000)">
                        <g id="Group-19">
                            <g id="Group-16-Copy" transform="translate(839.000000, 0.000000)">
                                <rect id="Rectangle" fill="url(#linearGradient-1)" x="-4.97379915e-14" y="3.55271368e-14" width="118.36" height="33.42"></rect>
                                <rect id="Rectangle" fill="#3F3177" x="85" y="3.55271368e-14" width="33.36" height="33.42" rx="2.01"></rect>
                            </g>
                        </g>
                    </g>
                </g>
            </g>
        </g>
    </g>
</svg>